[
  {
    "name":"event1",
    "teacher":"teacher1",
    "minimal_distance":{
      "event3":2
    },
    "allowed_indexes":[1]
  },
  {
    "name":"event2",
    "teacher":"teacher2",
    "minimal_distance":{
      "event4":2
    },
    "forbidden_indexes":[4]
  },
  {
    "name":"event3",
    "teacher":"teacher1",
    "minimal_distance":{
      "event1":2
    }
  },
  {
    "name":"event4",
    "teacher":"teacher2",
    "minimal_distance":{
      "event2":2
    }
  },
  {
    "name":"event5",
    "teacher":"teacher1"
  }
]